\BOOKMARK [0][-]{chapter.1}{Installing/Running OwnCloud Server on Raspberry Pi}{}% 1
\BOOKMARK [1][-]{section.1.1}{Section A of work flow}{chapter.1}% 2
\BOOKMARK [2][-]{subsection.1.1.1}{Set Up Installation}{section.1.1}% 3
\BOOKMARK [2][-]{subsection.1.1.2}{Install OwnCloud}{section.1.1}% 4
\BOOKMARK [2][-]{subsection.1.1.3}{Mount Drive}{section.1.1}% 5
\BOOKMARK [2][-]{subsection.1.1.4}{References}{section.1.1}% 6
