\contentsline {chapter}{\numberline {1}Installing/Running OwnCloud Server on Raspberry Pi}{3}{chapter.1}
\contentsline {section}{\numberline {1.1}Section A of work flow}{3}{section.1.1}
\contentsline {subsection}{\numberline {1.1.1}Set Up Installation}{3}{subsection.1.1.1}
\contentsline {subsection}{\numberline {1.1.2}Install OwnCloud}{8}{subsection.1.1.2}
\contentsline {subsection}{\numberline {1.1.3}Mount Drive}{9}{subsection.1.1.3}
\contentsline {subsection}{\numberline {1.1.4}References}{10}{subsection.1.1.4}
