\contentsline {chapter}{\numberline {1}Installing/Running Apache2 Server on Linux}{3}{chapter.1}
\contentsline {section}{\numberline {1.1}Section A of work flow}{3}{section.1.1}
\contentsline {subsection}{\numberline {1.1.1}How to Install}{3}{subsection.1.1.1}
\contentsline {subsection}{\numberline {1.1.2}How to Run}{4}{subsection.1.1.2}
